 -------------------------------------------
              18/05/2017 16:40
********************************************
                PEDIDO BALCAO
********************************************
                    Itens
Produto                                  Qtd.
ESFIHA CARNE                            1    


Balcao
SENHA: 930
 