      PONTO DA ESFIHA
    Av. Rio Pequeno, 634
 -------------------------
      09/05/2017 22:37
 **************************
           MESA 7
 **************************
           Itens
Cod.Produto             V. U Qt Total      
203 ESFIHA CALABRESA    2.00  6 12.00      
206 ESFIHA BAURU        2.50  2  5.00      
679 REFRIGERANTE 2L     8.50  1  8.50      
315 ESFIHA DE CARNE     1.50  1  1.50      
----------------------------


--